Successfully read the ckt file
Finished normalising circuit
Obejective is :G14:0
Current wire values :{'G5': 'x', 'G10': 'x', 'G6': 'x', 'G11': 'x', 'G7': 'x', 'G13': 'x', 'G14': 'x', 'G8': 'x', 'G15': 'x', 'G12': 'x', 'G16': 'x', 'G9': 'x', 'G0': 'x', 'G1': 'x', 'G2': 'x', 'G3': 'x', 'G17': 'x'}
Event occured at G0 : 1
Event occured at G14 : 0
Event occured at G8 : 0
Event occured at G10 : x
Event occured at G15 : x
Event occured at G16 : x
Event occured at G9 : x
Event occured at G9 : x
Event occured at G11 : x
Event occured at G11 : x
Event occured at G17 : x
Event occured at G10 : x
Event occured at G17 : x
Event occured at G10 : x
Events completed. Output Vector : [['G17', 'x']]

Event occured at G8 : 1
Event occured at G15 : 1
Event occured at G16 : 1
Event occured at G9 : x
Event occured at G9 : 0
Event occured at G11 : x
Event occured at G11 : 1
Event occured at G17 : x
Event occured at G10 : x
Event occured at G17 : 0
Event occured at G10 : 1
Events completed. Output Vector : [['G17', '0']]

Obejective is :G5:0
Current wire values :{'G5': 'x', 'G10': '1', 'G6': 'x', 'G11': '1', 'G7': 'x', 'G13': 'x', 'G14': '0', 'G8': '1', 'G15': '1', 'G12': 'x', 'G16': '1', 'G9': '0', 'G0': '1', 'G1': 'x', 'G2': 'x', 'G3': 'x', 'G17': '0'}
